CollegeAdmit
…
##file_path <- '~/compscix415-DataSciencePrinciples/DataSciencePrinciples/data/Berkeley.csv'
##admit_Berkdata <- read_csv(file = file_path)

admit_alldata

## # A tibble: 12,876 x 7
##    `School Name`   City   `County/State/ T `Measure Names` School  Race  
##    <chr>           <chr>  <chr>             <chr>           <chr>   <chr> 
##  1 A B MILLER HIG Fonta San Bernardino    enr             A B MI Domes
##  2 A B MILLER HIG Fonta San Bernardino    adm             A B MI Domes
##  3 A B MILLER HIG Fonta San Bernardino    app             A B MI Domes
##  4 A B MILLER HIG Fonta San Bernardino    enr             A B MI Hispa
##  5 A B MILLER HIG Fonta San Bernardino    adm             A B MI Hispa
##  6 A B MILLER HIG Fonta San Bernardino    app             A B MI Hispa
##  7 A B MILLER HIG Fonta San Bernardino    enr             A B MI All   
##  8 A B MILLER HIG Fonta San Bernardino    adm             A B MI All   
##  9 A B MILLER HIG Fonta San Bernardino    app             A B MI All   
## 10 ABRAHAM LINCOL Los A Los Angeles       enr             ABRAHA Asian 
## # ... with 12,866 more rows, and 1 more variable: `Measure Values` <int>

##admit_Berkdata

admit_data <- spread(data=admit_alldata, key="Measure Names", value="Measure Values") %>% mutate(AdmitStat=adm/app)

admit_data

## # A tibble: 4,292 x 9
##    `School Name`   City   `County/State/  School  Race    adm   app   enr
##    <chr>           <chr>  <chr>            <chr>   <chr> <int> <int> <int>
##  1 A B MILLER HIG Fonta San Bernardino   A B MI Dome    28    30    13
##  2 A B MILLER HIG Fonta San Bernardino   A B MI Hisp    36    52    18
##  3 A B MILLER HIG Fonta San Bernardino   A B MI All      68    88    34
##  4 ABRAHAM LINCOL Los A Los Angeles      ABRAHA Asian    25    36    22
##  5 ABRAHAM LINCOL Los A Los Angeles      ABRAHA Hisp    10    21     7
##  6 ABRAHAM LINCOL Los A Los Angeles      ABRAHA All      39    61    33
##  7 ABRAHAM LINCOL San F San Francisco    ABRAHA White     7    12     6
##  8 ABRAHAM LINCOL San F San Francisco    ABRAHA Asian   105   193    73
##  9 ABRAHAM LINCOL San F San Francisco    ABRAHA Hisp    14    24     7
## 10 ABRAHAM LINCOL San F San Francisco    ABRAHA Afri    NA     6    NA
## # ... with 4,282 more rows, and 1 more variable: AdmitStat <dbl>

names(admit_data)[3]<-"County"
names(admit_data)[1]<-"SchoolID"
##admit_data[10] <- NULL
admit_data

## # A tibble: 4,292 x 9
##    SchoolID    City   County  School    Race     adm   app   enr AdmitStat
##    <chr>       <chr>  <chr>   <chr>     <chr>  <int> <int> <int>     <dbl>
##  1 A B MILLER Fonta San Be A B MILL Domes    28    30    13     0.933
##  2 A B MILLER Fonta San Be A B MILL Hispa    36    52    18     0.692
##  3 A B MILLER Fonta San Be A B MILL All       68    88    34     0.773
##  4 ABRAHAM LI Los A Los An ABRAHAM  Asian     25    36    22     0.694
##  5 ABRAHAM LI Los A Los An ABRAHAM  Hispa    10    21     7     0.476
##  6 ABRAHAM LI Los A Los An ABRAHAM  All       39    61    33     0.639
##  7 ABRAHAM LI San F San Fr ABRAHAM  White      7    12     6     0.583
##  8 ABRAHAM LI San F San Fr ABRAHAM  Asian    105   193    73     0.544
##  9 ABRAHAM LI San F San Fr ABRAHAM  Hispa    14    24     7     0.583
## 10 ABRAHAM LI San F San Fr ABRAHAM  Afric    NA     6    NA    NA    
## # ... with 4,282 more rows

Alameda <- admit_data %>% 
  filter(County=="Alameda")

Alameda

## # A tibble: 207 x 9
##    SchoolID     City   County School    Race     adm   app   enr AdmitStat
##    <chr>        <chr>  <chr>  <chr>     <chr>  <int> <int> <int>     <dbl>
##  1 ALAMEDA COM Alame Alame ALAMEDA  White      6     7     6     0.857
##  2 ALAMEDA COM Alame Alame ALAMEDA  Asian      8     9     3     0.889
##  3 ALAMEDA COM Alame Alame ALAMEDA  Hispa     4     5    NA     0.800
##  4 ALAMEDA COM Alame Alame ALAMEDA  All       21    25    11     0.840
##  5 ALAMEDA HIG Alame Alame ALAMEDA  Domes     4     6    NA     0.667
##  6 ALAMEDA HIG Alame Alame ALAMEDA  White     37    50    22     0.740
##  7 ALAMEDA HIG Alame Alame ALAMEDA  Asian    100   124    71     0.806
##  8 ALAMEDA HIG Alame Alame ALAMEDA  Hispa     8    12     5     0.667
##  9 ALAMEDA HIG Alame Alame ALAMEDA  Afric     8    14     5     0.571
## 10 ALAMEDA HIG Alame Alame ALAMEDA  All      161   210   107     0.767
## # ... with 197 more rows
…
